{
    "CacheThumbnail": true,
    "KPlugin": {
        "MimeTypes": [
            "application/x-iso9660-appimage",
            "application/vnd.appimage"
        ],
        "Name": "AppImage",
        "Name[bg]": "AppImage",
        "Name[ca@valencia]": "AppImage",
        "Name[ca]": "AppImage",
        "Name[en_GB]": "AppImage",
        "Name[es]": "AppImage",
        "Name[eu]": "AppImage",
        "Name[fi]": "AppImage",
        "Name[fr]": "AppImage",
        "Name[it]": "AppImage",
        "Name[ka]": "AppImage",
        "Name[ko]": "AppImage",
        "Name[nl]": "AppImage",
        "Name[nn]": "AppImage",
        "Name[pl]": "AppImage",
        "Name[pt]": "AppImage",
        "Name[sl]": "AppImage",
        "Name[sv]": "AppImage",
        "Name[ta]": "AppImage",
        "Name[tr]": "AppImage",
        "Name[uk]": "AppImage",
        "Name[vi]": "AppImage",
        "Name[x-test]": "xxAppImagexx",
        "Name[zh_CN]": "AppImage 软件包"
    }
}
