{
    "CacheThumbnail": true,
    "KPlugin": {
        "MimeTypes": [
            "image/x-xcursor"
        ],
        "Name": "Cursor Files",
        "Name[bg]": "Файлове с показалци на мишката",
        "Name[ca@valencia]": "Fitxers de cursor",
        "Name[ca]": "Fitxers de cursor",
        "Name[en_GB]": "Cursor Files",
        "Name[es]": "Archivos de cursores",
        "Name[eu]": "Kurtsore-fitxategiak",
        "Name[fi]": "Hiiriosoitintiedostot",
        "Name[fr]": "Fichiers de curseur",
        "Name[it]": "File dei puntatori",
        "Name[ka]": "კურსორის ფაილები",
        "Name[ko]": "커서 파일",
        "Name[nl]": "Cursorbestanden",
        "Name[nn]": "Peikarfiler",
        "Name[pl]": "Pliki kursorów",
        "Name[pt]": "Ficheiros de Cursores",
        "Name[sl]": "Datoteke kazalnikov",
        "Name[sv]": "Muspekarfiler",
        "Name[ta]": "சுட்டிக்குறி கோப்புகள்",
        "Name[tr]": "İmleç Dosyaları",
        "Name[uk]": "Файли курсорів",
        "Name[vi]": "Tệp con trỏ",
        "Name[x-test]": "xxCursor Filesxx",
        "Name[zh_CN]": "光标文件"
    }
}
