{
    "CacheThumbnail": true,
    "IgnoreMaximumSize": true,
    "KPlugin": {
        "MimeTypes": [
            "image/x-exr"
        ],
        "Name": "EXR Images",
        "Name[bg]": "EXR изображения",
        "Name[ca@valencia]": "Imatges EXR",
        "Name[ca]": "Imatges EXR",
        "Name[en_GB]": "EXR Images",
        "Name[es]": "Imágenes EXR",
        "Name[eu]": "EXR irudiak",
        "Name[fi]": "EXR-kuvat",
        "Name[fr]": "Images « EXR »",
        "Name[it]": "Immagini EXR",
        "Name[ka]": "EXR გამოსახულებები",
        "Name[ko]": "EXR 그림",
        "Name[nl]": "EXR-afbeeldingen",
        "Name[nn]": "EXR-bilete",
        "Name[pl]": "Obrazy EXR",
        "Name[pt]": "Imagens EXR",
        "Name[sl]": "Slike EXR",
        "Name[sv]": "EXR-bilder",
        "Name[ta]": "EXR படங்கள்",
        "Name[tr]": "EXR Görselleri",
        "Name[uk]": "Зображення EXR",
        "Name[vi]": "Ảnh EXR",
        "Name[x-test]": "xxEXR Imagesxx",
        "Name[zh_CN]": "EXR 图像"
    }
}
