{
    "CacheThumbnail": true,
    "KPlugin": {
        "MimeTypes": [
            "image/x-ico",
            "image/vnd.microsoft.icon",
            "image/x-win-bitmap",
            "application/x-navi-animation"
        ],
        "Name": "Microsoft Windows Images",
        "Name[bg]": "Изображения за Microsoft Windows",
        "Name[ca@valencia]": "Imatges de Microsoft Windows",
        "Name[ca]": "Imatges de Microsoft Windows",
        "Name[en_GB]": "Microsoft Windows Images",
        "Name[es]": "Imágenes de Microsoft Windows",
        "Name[eu]": "Microsoft Windows-en irudiak",
        "Name[fi]": "Microsoft Windows -kuvat",
        "Name[fr]": "Images « Microsoft Windows »",
        "Name[it]": "Immagini di Microsoft Windows",
        "Name[ka]": "Microsoft Windows-ის გამოსახულებები",
        "Name[ko]": "Microsoft Windows 그림",
        "Name[nl]": "Afbeeldingen van Microsoft Windows",
        "Name[nn]": "Microsoft Windows-bilete",
        "Name[pl]": "Obrazy Microsoft Windows",
        "Name[pt]": "Imagens do Microsoft Windows",
        "Name[sl]": "Slike Microsoft Windows",
        "Name[sv]": "Microsoft Windows avbilder",
        "Name[ta]": "மைக்ரோசாப்ட் விண்டோஸ் படங்கள்",
        "Name[tr]": "Microsoft Windows Görselleri",
        "Name[uk]": "Зображення Microsoft Windows",
        "Name[vi]": "Ảnh Windows Microsoft",
        "Name[x-test]": "xxMicrosoft Windows Imagesxx",
        "Name[zh_CN]": "Microsoft Windows Images 图像"
    }
}
