{
    "KPlugin": {
        "Description": "Allows automatic updates of Search Folders",
        "Description[bg]": "Позволява автоматично актуализиране на търсене на папки",
        "Description[ca@valencia]": "Permet l'actualització automàtica de les carpetes de busca",
        "Description[ca]": "Permet l'actualització automàtica de les carpetes de cerca",
        "Description[en_GB]": "Allows automatic updates of Search Folders",
        "Description[es]": "Permite actualizaciones automáticas de carpetas de búsqueda",
        "Description[eu]": "Bilaketa karpeten eguneraketa automatikoak gaitzen ditu",
        "Description[fi]": "Sallii hakukansioiden automaattipäivitykset",
        "Description[fr]": "Permet des mises à jour automatiques des dossiers de recherche",
        "Description[it]": "Consente aggiornamenti automatici delle cartelle di ricerca",
        "Description[ka]": "ძებნის საქაღალდეების განახლება",
        "Description[ko]": "검색 폴더 자동 업데이트 허용",
        "Description[nl]": "Staat automatisch bijwerken van zoekmappen toe",
        "Description[nn]": "Tillèt automatiske oppdateringar av søkjemapper",
        "Description[pl]": "Umożliwia samoczynne uaktualnienia katalogów wyszukiwania",
        "Description[pt]": "Permite as actualizações das Pastas de Pesquisa",
        "Description[sl]": "Dovoljuje samodejno osveževanje iskalnih map",
        "Description[sv]": "Tillåter automatisk uppdatering av sökkataloger",
        "Description[ta]": "தேடல் அடைவுகளை தானாக புதுப்பிக்கும்",
        "Description[tr]": "Arama Klasörlerinin otomatik güncellenmesine izin ver",
        "Description[uk]": "Надає змогу автоматично оновлювати теки пошуку",
        "Description[vi]": "Cho phép tự động cập nhật các thư mục tìm kiếm",
        "Description[x-test]": "xxAllows automatic updates of Search Foldersxx",
        "Description[zh_CN]": "允许自动更新搜索文件夹",
        "Icon": "edit-find",
        "Name": "Search Folder Updater",
        "Name[bg]": "Актуализатор на търсене на папки",
        "Name[ca@valencia]": "Actualitzador de les carpetes de busca",
        "Name[ca]": "Actualitzador de les carpetes de cerca",
        "Name[en_GB]": "Search Folder Updater",
        "Name[es]": "Actualizador de carpetas de búsqueda",
        "Name[eu]": "Bilaketa karpeten eguneratzailea",
        "Name[fi]": "Hakukansiopäivitys",
        "Name[fr]": "Système de mise à jour du dossier de recherche ",
        "Name[it]": "Aggiornamento delle cartelle di ricerca",
        "Name[ka]": "ძებნის საქაღალდის განახლება",
        "Name[ko]": "검색 폴더 업데이트 도구",
        "Name[nl]": "Bijwerkprogramma van zoekmap",
        "Name[nn]": "Søkjemappe-oppdatering",
        "Name[pl]": "Uaktualnianie katalogów wyszukiwania",
        "Name[pt]": "Actualização das Pastas de Pesquisa",
        "Name[sl]": "Osveževalnik iskalnika mape",
        "Name[sv]": "Uppdateringsverktyg för sökkataloger",
        "Name[ta]": "தேடல் அடைவு புதுப்பிப்பு சேவை",
        "Name[tr]": "Arama Klasörü Güncelleyici",
        "Name[uk]": "Засіб оновлення тек пошуку",
        "Name[vi]": "Trình cập nhật thư mục tìm kiếm",
        "Name[x-test]": "xxSearch Folder Updaterxx",
        "Name[zh_CN]": "搜索文件夹更新程序"
    },
    "X-KDE-FactoryName": "filenamesearchmodule",
    "X-KDE-Kded-autoload": false,
    "X-KDE-Kded-load-on-demand": true
}
